{
    "apiUrl": "/src/",
    "debugging": true,
    "admin-service": "https://prod-admin.leanstack.work/leanstack/",
    "customers-service": "https://prod-customer.leanstack.work/leanstack/",
    "domains-service": "https://prod-domains.leanstack.work/leanstack/",
    "finance-service": "https://prod-finance.leanstack.work/leanstack/",
    "hosting-service": "https://prod-hosting.leanstack.work/leanstack/", 
    "activities-service": "https://activities.leanstack.work/leanstack/",
    "cart-service":"https://prod-cart.leanstack.work/leanstack/redis/product/",
    "paystackUrl":"https://api.paystack.co/transaction/initialize",
    "paystackSecret":"sk_live_b7031f698522415ab8e016f7450d13c84aca5435",
    "authMessage": "Session Timed out, kindly login again",
    "pleskURL" : "https://leanstack.co:8443/",
    "authError": 40
}